GEO880_Report
…
posmo_df <- read_csv("posmo_03_23_05_03.csv",
                 col_types = cols(
                   user_id = col_character(),
                   datetime = col_datetime(),
                   weekday = col_factor(levels = c("Sun", "Mon", "Tue", "Wed", "Thu", "Fri", "Sat")), # read daytime as a factor
                   place_name = col_character(),
                   transport_mode = col_character(),
                   lon_x = col_double(),
                   lat_y = col_double()
                 ))

posmo_df %>% as_tibble()

# A tibble: 25,549 × 7
   user_id     datetime            weekday place_name transport_mode lon_x lat_y
   <chr>       <dttm>              <fct>   <chr>      <chr>          <dbl> <dbl>
 1 0f84c8f2-2… 2024-03-23 10:35:10 Sat     Careum Bi… <NA>            8.55  47.4
 2 0f84c8f2-2… 2024-03-23 11:55:38 Sat     <NA>       Walk            8.55  47.4
 3 0f84c8f2-2… 2024-03-23 11:55:38 Sat     <NA>       Walk            8.55  47.4
 4 0f84c8f2-2… 2024-03-23 11:55:49 Sat     <NA>       Walk            8.55  47.4
 5 0f84c8f2-2… 2024-03-23 11:56:00 Sat     <NA>       Walk            8.55  47.4
 6 0f84c8f2-2… 2024-03-23 11:56:11 Sat     <NA>       Walk            8.55  47.4
 7 0f84c8f2-2… 2024-03-23 11:56:22 Sat     <NA>       Walk            8.55  47.4
 8 0f84c8f2-2… 2024-03-23 11:56:33 Sat     <NA>       Walk            8.55  47.4
 9 0f84c8f2-2… 2024-03-23 11:56:44 Sat     <NA>       Walk            8.55  47.4
10 0f84c8f2-2… 2024-03-23 11:56:55 Sat     <NA>       Walk            8.55  47.4
# ℹ 25,539 more rows
…
# use tmap for visualizing our trajectory
tmap_options(basemaps = "OpenStreetMap")

tm_shape(posmo_0304_line) +
  tm_lines() +
  tm_shape(posmo_0304_sf) + 
  tm_dots()

walk_0304 <- posmo_0304_sf |> filter(transport_mode == "Walk") 

walk_0304 |> as_tibble()

# A tibble: 199 × 6
   user_id                 datetime            weekday place_name transport_mode
   <chr>                   <dttm>              <fct>   <chr>      <chr>         
 1 0f84c8f2-20e1-4f1e-b94… 2024-04-03 06:37:51 Wed     <NA>       Walk          
 2 0f84c8f2-20e1-4f1e-b94… 2024-04-03 06:37:51 Wed     <NA>       Walk          
 3 0f84c8f2-20e1-4f1e-b94… 2024-04-03 06:38:02 Wed     <NA>       Walk          
 4 0f84c8f2-20e1-4f1e-b94… 2024-04-03 06:38:13 Wed     <NA>       Walk          
 5 0f84c8f2-20e1-4f1e-b94… 2024-04-03 06:38:23 Wed     <NA>       Walk          
 6 0f84c8f2-20e1-4f1e-b94… 2024-04-03 06:38:34 Wed     <NA>       Walk          
 7 0f84c8f2-20e1-4f1e-b94… 2024-04-03 06:38:45 Wed     <NA>       Walk          
 8 0f84c8f2-20e1-4f1e-b94… 2024-04-03 06:38:56 Wed     <NA>       Walk          
 9 0f84c8f2-20e1-4f1e-b94… 2024-04-03 06:39:07 Wed     <NA>       Walk          
10 0f84c8f2-20e1-4f1e-b94… 2024-04-03 06:39:18 Wed     <NA>       Walk          
# ℹ 189 more rows
# ℹ 1 more variable: geometry <POINT [m]>
…
