Trip detection from daily GPS data
…
# Summarize the trips to identify walking trips
walking_trips <- data %>%
  group_by(user_id, merged_trip_id) %>%
  summarize(
    start_time = min(datetime),
    end_time = max(datetime),
    total_distance_m = sum(distance_m, na.rm = TRUE),
    duration_mins = as.numeric(difftime(max(datetime), min(datetime), units = "mins"))
  ) %>%
  filter(duration_mins > 0)

# View the identified walking trips
print(walking_trips)

# A tibble: 338 × 6
# Groups:   user_id [1]
   user_id                merged_trip_id start_time          end_time           
   <chr>                           <dbl> <dttm>              <dttm>             
 1 0f84c8f2-20e1-4f1e-b9…              1 2024-03-23 15:51:50 2024-03-23 16:00:34
 2 0f84c8f2-20e1-4f1e-b9…              2 2024-03-23 16:00:44 2024-03-23 17:50:11
 3 0f84c8f2-20e1-4f1e-b9…              3 2024-03-23 17:50:22 2024-03-23 21:48:39
 4 0f84c8f2-20e1-4f1e-b9…              4 2024-03-23 21:48:50 2024-03-23 22:14:48
 5 0f84c8f2-20e1-4f1e-b9…              5 2024-03-23 22:14:59 2024-03-23 22:26:56
 6 0f84c8f2-20e1-4f1e-b9…              6 2024-03-23 22:27:08 2024-03-24 07:56:40
 7 0f84c8f2-20e1-4f1e-b9…              7 2024-03-24 07:56:51 2024-03-24 08:14:37
 8 0f84c8f2-20e1-4f1e-b9…              8 2024-03-24 08:14:52 2024-03-24 20:01:06
 9 0f84c8f2-20e1-4f1e-b9…              9 2024-03-24 20:01:17 2024-03-24 20:26:49
10 0f84c8f2-20e1-4f1e-b9…             10 2024-03-24 20:27:00 2024-03-25 06:10:54
# ℹ 328 more rows
# ℹ 2 more variables: total_distance_m <dbl>, duration_mins <dbl>
…
