…
# filter walk and consecutive group
walk_chong <- posmo_sf_chong |> filter(gap_id == 1) |> 
  group_by(walk_id) |> 
  filter(n() >= 5) |> 
  ungroup()

# have an overview
walk_chong |> as_tibble()
```

```
## # A tibble: 11,612 × 17
##    datetime            weekday place_name transport_mode lon_x
##    <dttm>              <fct>   <chr>      <fct>          <dbl>
##  1 2024-03-23 11:59:32 Sat     <NA>       Walk            8.55
##  2 2024-03-23 11:59:43 Sat     <NA>       Walk            8.55
##  3 2024-03-23 11:59:54 Sat     <NA>       Walk            8.55
##  4 2024-03-23 12:00:05 Sat     <NA>       Walk            8.55
##  5 2024-03-23 12:00:16 Sat     <NA>       Walk            8.55
##  6 2024-03-23 12:00:27 Sat     <NA>       Walk            8.55
##  7 2024-03-23 12:00:37 Sat     <NA>       Walk            8.55
##  8 2024-03-23 12:00:48 Sat     <NA>       Walk            8.55
##  9 2024-03-23 12:00:59 Sat     <NA>       Walk            8.55
## 10 2024-03-23 12:01:09 Sat     <NA>       Walk            8.55
## # ℹ 11,602 more rows
## # ℹ 12 more variables: lat_y <dbl>, date <date>, lv95_x <dbl>,
## #   lv95_y <dbl>, transport_mode_id <dbl>,
## #   geometry <POINT [m]>, stepMean <dbl>, timeMean <dbl>,
## #   speedMean <dbl>, walk <lgl>, gap_id <dbl>, walk_id <dbl>
```
…
  return(df)
}

# Apply the adjustment function
walk_gong <- adjust_trip_ids(posmo_sf_gong) |>   group_by(tra_id) |> 
  filter(n() > 1) |> 
  ungroup()

walk_gong |> as_tibble()
```

```
## # A tibble: 15,279 × 17
##    datetime            weekday place_name transport_mode lon_x
##    <dttm>              <fct>   <chr>      <fct>          <dbl>
##  1 2024-03-23 11:55:38 Sat     <NA>       Walk            8.55
##  2 2024-03-23 11:55:49 Sat     <NA>       Walk            8.55
##  3 2024-03-23 11:56:00 Sat     <NA>       Walk            8.55
##  4 2024-03-23 11:56:11 Sat     <NA>       Walk            8.55
##  5 2024-03-23 11:56:22 Sat     <NA>       Walk            8.55
##  6 2024-03-23 11:56:33 Sat     <NA>       Walk            8.55
##  7 2024-03-23 11:56:44 Sat     <NA>       Walk            8.55
##  8 2024-03-23 11:56:55 Sat     <NA>       Walk            8.55
##  9 2024-03-23 11:57:05 Sat     <NA>       Walk            8.55
## 10 2024-03-23 11:57:16 Sat     <NA>       Walk            8.55
## # ℹ 15,269 more rows
## # ℹ 12 more variables: lat_y <dbl>, date <date>, lv95_x <dbl>,
## #   lv95_y <dbl>, transport_mode_id <dbl>,
## #   geometry <POINT [m]>, stepMean <dbl>, timeMean <dbl>,
## #   speedMean <dbl>, gap <lgl>, gap_id <dbl>, tra_id <dbl>
```
…
